%YAML 1.1
%TAG !u! tag:unity3d.com,2011:
--- !u!114 &11400000
MonoBehaviour:
  m_ObjectHideFlags: 0
  m_CorrespondingSourceObject: {fileID: 0}
  m_PrefabInternal: {fileID: 0}
  m_GameObject: {fileID: 0}
  m_Enabled: 1
  m_EditorHideFlags: 0
  m_Script: {fileID: 11500000, guid: 3fbd0a9c775139144a24bc39d0629bab, type: 3}
  m_Name: Gamma
  m_EditorClassIdentifier: 
  strokes:
  - points:
    - {x: -0.20367855, y: 0.46748945}
    - {x: -0.18725851, y: 0.4198173}
    - {x: -0.17466243, y: 0.37099567}
    - {x: -0.1613448, y: 0.32236555}
    - {x: -0.1493328, y: 0.27339667}
    - {x: -0.13881989, y: 0.22408433}
    - {x: -0.13018763, y: 0.17440848}
    - {x: -0.12510848, y: 0.124246106}
    - {x: -0.123765506, y: 0.07384561}
    - {x: -0.12365619, y: 0.023425251}
    - {x: -0.12365267, y: -0.026995497}
    - {x: -0.12365262, y: -0.07741624}
    - {x: -0.123785146, y: -0.12783681}
    - {x: -0.12443907, y: -0.17825323}
    - {x: -0.12545739, y: -0.22866365}
    - {x: -0.12677841, y: -0.27906704}
    - {x: -0.12926576, y: -0.3294259}
    - {x: -0.13437594, y: -0.37958428}
    - {x: -0.14490156, y: -0.42888138}
    - {x: -0.16434462, y: -0.47536156}
    - {x: -0.20531495, y: -0.49737477}
    - {x: -0.21620527, y: -0.44820905}
    - {x: -0.21628053, y: -0.3977951}
    - {x: -0.21267083, y: -0.34750608}
    - {x: -0.20681673, y: -0.29742855}
    - {x: -0.19873007, y: -0.24766274}
    - {x: -0.18842481, y: -0.19830683}
    - {x: -0.17711435, y: -0.14917125}
    - {x: -0.1665688, y: -0.09986674}
    - {x: -0.15775007, y: -0.050224096}
    - {x: -0.15054162, y: -0.0003214969}
    - {x: -0.14408155, y: 0.049682792}
    - {x: -0.13577123, y: 0.09940825}
    - {x: -0.1228649, y: 0.14814416}
    - {x: -0.10560292, y: 0.19551346}
    - {x: -0.08417529, y: 0.2411457}
    - {x: -0.057046585, y: 0.2836378}
    - {x: -0.024717739, y: 0.32232738}
    - {x: 0.010443043, y: 0.35846478}
    - {x: 0.04714286, y: 0.3930384}
    - {x: 0.085218206, y: 0.42609027}
    - {x: 0.12557065, y: 0.45631397}
    - {x: 0.17093454, y: 0.47832236}
    - {x: 0.21645752, y: 0.5}
