%YAML 1.1
%TAG !u! tag:unity3d.com,2011:
--- !u!114 &11400000
MonoBehaviour:
  m_ObjectHideFlags: 0
  m_CorrespondingSourceObject: {fileID: 0}
  m_PrefabInternal: {fileID: 0}
  m_GameObject: {fileID: 0}
  m_Enabled: 1
  m_EditorHideFlags: 0
  m_Script: {fileID: 11500000, guid: 3fbd0a9c775139144a24bc39d0629bab, type: 3}
  m_Name: Glyph1
  m_EditorClassIdentifier: 
  strokes:
  - points:
    - {x: -0.09743515, y: 0.2083007}
    - {x: -0.069648825, y: 0.24997203}
    - {x: -0.041862503, y: 0.29164338}
    - {x: -0.014076172, y: 0.3333147}
    - {x: 0.013710157, y: 0.37498602}
    - {x: 0.041496467, y: 0.4166574}
    - {x: 0.0692828, y: 0.4583287}
    - {x: 0.09706912, y: 0.5}
    - {x: 0.097435154, y: 0.45162842}
    - {x: 0.09740135, y: 0.4015427}
    - {x: 0.09736753, y: 0.351457}
    - {x: 0.09733373, y: 0.30137128}
    - {x: 0.09729994, y: 0.25128555}
    - {x: 0.09726613, y: 0.20119984}
    - {x: 0.097232334, y: 0.15111412}
    - {x: 0.097198516, y: 0.101028405}
    - {x: 0.09716472, y: 0.050942693}
    - {x: 0.09713092, y: 0.0008569753}
    - {x: 0.09709711, y: -0.04922874}
    - {x: 0.097063296, y: -0.09931445}
    - {x: 0.0970295, y: -0.14940017}
    - {x: 0.09699569, y: -0.19948588}
    - {x: 0.09696189, y: -0.24957159}
    - {x: 0.09692808, y: -0.29965732}
    - {x: 0.096894294, y: -0.349743}
    - {x: 0.096860476, y: -0.39982873}
    - {x: 0.09682668, y: -0.44991446}
    - {x: 0.09679287, y: -0.5}
